{
   "text_need_shuffle_playing_card": "Need Shuffle Playing Card!",
   "text_refund_bet": "Refund Bet!",
   "text_win_player": "Player Win!",
   "text_win_bank": "Banker Wins!",
   "text_win_tie": "Tie Wins!",
   "text_win": "Win:",
   "text_bet": "Bet:",
   "text_balence": "Balence:",
   "text_rate_bank": "BANK",
   "text_rate_player": "PLAYER",
   "text_rate_tie": "TIE",
   "text_player_name": "Player",
   "text_bank_name": "Bank",
   "text_btn_deal": "Deal",
   "text_btn_continue": "Continue",
   "text_btn_clear_all": "ClearAll"
}